0	5.63	5.55	5.38	5.07	7.08	4.06	6.37	5.02	5.79	6
6	0	3.56	0.86	1.52	2.81	2.86	2.52	1.89	1.33	1.98
5.72	1.84	0	2.06	2.72	2.35	3.83	0.82	3.09	2.63	1.83
5.29	0.76	2.7	0	2.27	3.2	3.61	1.66	2.65	2.09	1.13
5.96	1.52	3.46	0.76	0	2.64	2.82	2.43	1.86	1.3	1.89
6.97	2.72	2.55	1.97	2.71	0	3.82	0.77	3.09	2.54	1.74
3.89	3.13	3.91	2.82	2.06	4.06	0	3.88	2.52	3.12	3.5
6.54	2.66	1.78	3.5	4.17	1.53	4.97	0	4.23	3.99	3.16
4.12	2.56	4.06	1.93	2.44	3.68	1.35	3.47	0	2.34	2.93
4.67	2.75	4.26	2	1.23	3.08	1.52	2.9	1.56	0	2.72
6.78	2.62	2.31	1.87	2.53	2.07	3.64	0.54	2.91	2.44	0